{
    "avg": {
        "wmc": 3.9,
        "ccn": 1.7,
        "bugs": 0.02,
        "kanDefect": 0.22,
        "relativeSystemComplexity": 8.77,
        "relativeDataComplexity": 1.17,
        "relativeStructuralComplexity": 7.6,
        "volume": 54.99,
        "commentWeight": 40.56,
        "intelligentContent": 14.84,
        "lcom": 1.1,
        "instability": 0.63,
        "afferentCoupling": 1,
        "efferentCoupling": 1.8,
        "difficulty": 3.04,
        "mi": 102.01,
        "distance": 0.16,
        "incomingCDep": 1.4,
        "incomingPDep": 1,
        "outgoingCDep": 2.6,
        "outgoingPDep": 1.4,
        "classesPerPackage": 2.2
    },
    "sum": {
        "loc": 364,
        "cloc": 138,
        "lloc": 226,
        "nbMethods": 18,
        "nbClasses": 10,
        "nbInterfaces": 1,
        "nbPackages": 5,
        "violations": {
            "total": 2,
            "information": 0,
            "warning": 2,
            "error": 0,
            "critical": 0
        }
    }
}